{"count":74085,"next":"https://myne.pooloftears.xyz/books/?page=2","previous":null,"results":
 
 
 [{"id":1513,
   "title":"Romeo and Juliet",
   "authors":[{"name":"Shakespeare, William","birth_year":1564,"death_year":1616}],
   "translators":[],
   "subjects":["Conflict of generations -- Drama","Juliet (Fictitious character) -- Drama","Romeo (Fictitious character) -- Drama","Tragedies","Vendetta -- Drama","Verona (Italy) -- Drama","Youth -- Drama"],
   "bookshelves":[],
   "languages":["en"],
   "copyright":false,
   "media_type":"Text",
   "formats":{"text/html":"https://www.gutes/1513.htmlnberg.org/ebook.images",
			  "application/epub+zip":"https://www.gutenberg.org/ebooks/1513.epub3.images",
			  "application/x-mobipocket-ebook":"https://www.gutenberg.org/ebooks/1513.kf8.images",
			  "text/plain; charset=us-ascii":"https://www.gutenberg.org/ebooks/1513.txt.utf-8",
			  "application/rdf+xml":"https://www.gutenberg.org/ebooks/1513.rdf",
			  "image/jpeg":"https://www.gutenberg.org/cache/epub/1513/pg1513.cover.medium.jpg",
			  "application/octet-stream":"https://www.gutenberg.org/cache/epub/1513/pg1513-h.zip"},
   "download_count":84723},
  
  {"id":2701,"title":"Moby Dick; Or, The Whale",
   "authors":[{"name":"Melville, Herman","birth_year":1819,"death_year":1891}],
   "translators":[],
   "subjects":["Adventure stories","Ahab, Captain (Fictitious character) -- Fiction","Mentally ill -- Fiction","Psychological fiction","Sea stories","Ship captains -- Fiction","Whales -- Fiction","Whaling -- Fiction","Whaling ships -- Fiction"],
   "bookshelves":["Best Books Ever Listings"],
   "languages":["en"],
   "copyright":false,
   "media_type":"Text",
   "formats":{"text/html":"https://www.gutenberg.org/ebooks/2701.html.images",
			  "text/html; charset=utf-8":"https://www.gutenberg.org/files/2701/2701-h/2701-h.htm",
			  "application/epub+zip":"https://www.gutenberg.org/ebooks/2701.epub3.images",
			  "application/x-mobipocket-ebook":"https://www.gutenberg.org/ebooks/2701.kf8.images",
			  "text/plain; charset=us-ascii":"https://www.gutenberg.org/ebooks/2701.txt.utf-8",
			  "text/plain; charset=utf-8":"https://www.gutenberg.org/files/2701/2701-0.txt",
			  "application/rdf+xml":"https://www.gutenberg.org/ebooks/2701.rdf",
			  "image/jpeg":"https://www.gutenberg.org/cache/epub/2701/pg2701.cover.medium.jpg",
			  "application/octet-stream":"https://www.gutenberg.org/cache/epub/2701/pg2701-h.zip"},"download_count":71888},
  
  
  ]}